{
    "type": "FeatureCollection",
    "features": [
      {
        "type": "Feature",
        "properties": {
          "nombre":"la matica",
          "cultivador": "Cristhian Camilo Cante Huertas",
          "fecha_cultivo": "2020-31-18",
          "Estado": "Malo",
          "tipo": "frijol",
          "tipo_nombre_científico":"Phaseolus vulgaris",
          "días":46,
          "descripción":" En esta pagina se podra evidenciar el desarrollo de una planta de frijol, a la cual se le dio lugar hace poco mas de un mes y que ya ha perecido, a pesar de que esta era regada tres veces a la semana, la planta mide 15 centimetros, esta tuvo un tiempo de vida de dos meses,posee 7 hojas",
          "foto":"IMG_20210120_210419483.jpg",
          "página":"https://cristhiancante.gitlab.io/la-matica-5/"
        },
        "geometry": {
          "type": "Point",
          "coordinates": [
            -74.1675317287445,
            4.626965967767793
          ]
        }
      }
    ]
  }
  